%YAML 1.1
%TAG !u! tag:unity3d.com,2011:
--- !u!114 &11400000
MonoBehaviour:
  m_ObjectHideFlags: 0
  m_CorrespondingSourceObject: {fileID: 0}
  m_PrefabInstance: {fileID: 0}
  m_PrefabAsset: {fileID: 0}
  m_GameObject: {fileID: 0}
  m_Enabled: 1
  m_EditorHideFlags: 0
  m_Script: {fileID: 11500000, guid: 468a46d0ae32c3544b7d98094e6448a9, type: 3}
  m_Name: AddressableAssetSettings
  m_EditorClassIdentifier: 
  m_DefaultGroup: c937b63866a9a427cbbaedc8e0952d56
  m_OptimizeCatalogSize: 0
  m_BuildRemoteCatalog: 0
  m_BundleLocalCatalog: 0
  m_CatalogRequestsTimeout: 0
  m_DisableCatalogUpdateOnStart: 0
  m_IgnoreUnsupportedFilesInBuild: 0
  m_UniqueBundleIds: 0
  m_NonRecursiveBuilding: 0
  m_maxConcurrentWebRequests: 500
  m_ContiguousBundles: 0
  m_StripUnityVersionFromBundleBuild: 0
  m_DisableVisibleSubAssetRepresentations: 0
  m_ShaderBundleNaming: 0
  m_ShaderBundleCustomNaming: 
  m_MonoScriptBundleNaming: 0
  m_MonoScriptBundleCustomNaming: 
  m_RemoteCatalogBuildPath:
    m_Id: 
  m_RemoteCatalogLoadPath:
    m_Id: 
  m_ContentStateBuildPath: 
  m_overridePlayerVersion: 
  m_GroupAssets:
  - {fileID: 11400000, guid: 3a82d02d24c7849329bf7405cf45451d, type: 2}
  - {fileID: 11400000, guid: d881695fd7c0944b4bffb8c2a99e1fbf, type: 2}
  m_BuildSettings:
    m_CompileScriptsInVirtualMode: 0
    m_CleanupStreamingAssetsAfterBuilds: 1
    m_LogResourceManagerExceptions: 1
    m_BundleBuildPath: Temp/com.unity.addressables/AssetBundles
  m_ProfileSettings:
    m_Profiles:
    - m_InheritedParent: 
      m_Id: 337a4cb4f4cde453baf8c24fff3e3211
      m_ProfileName: Default
      m_Values:
      - m_Id: 3264541622dd643d4a04cf85d91bdaeb
        m_Value: '[UnityEditor.EditorUserBuildSettings.activeBuildTarget]'
      - m_Id: ec6695cc166404b5a94a1406ace2b91b
        m_Value: '[UnityEngine.AddressableAssets.Addressables.BuildPath]/[BuildTarget]'
      - m_Id: 9e1b5477196344148a481ac1363c3259
        m_Value: '{UnityEngine.AddressableAssets.Addressables.RuntimePath}/[BuildTarget]'
      - m_Id: edff2602c35c34d24b73891bb99b61f8
        m_Value: ServerData/[BuildTarget]
      - m_Id: ff414e298434544cf8446895bf3ac24c
        m_Value: http://localhost/[BuildTarget]
    m_ProfileEntryNames:
    - m_Id: 3264541622dd643d4a04cf85d91bdaeb
      m_Name: BuildTarget
      m_InlineUsage: 0
    - m_Id: ec6695cc166404b5a94a1406ace2b91b
      m_Name: LocalBuildPath
      m_InlineUsage: 0
    - m_Id: 9e1b5477196344148a481ac1363c3259
      m_Name: LocalLoadPath
      m_InlineUsage: 0
    - m_Id: edff2602c35c34d24b73891bb99b61f8
      m_Name: RemoteBuildPath
      m_InlineUsage: 0
    - m_Id: ff414e298434544cf8446895bf3ac24c
      m_Name: RemoteLoadPath
      m_InlineUsage: 0
    m_ProfileVersion: 1
  m_LabelTable:
    m_LabelNames:
    - default
  m_SchemaTemplates: []
  m_GroupTemplateObjects:
  - {fileID: 11400000, guid: 6b9cbc2349d3a4f6480825a376306acb, type: 2}
  m_InitializationObjects: []
  m_CertificateHandlerType:
    m_AssemblyName: 
    m_ClassName: 
  m_ActivePlayerDataBuilderIndex: 3
  m_DataBuilders:
  - {fileID: 11400000, guid: 615db0f732a5045c2b2efa80c8139fa1, type: 2}
  - {fileID: 11400000, guid: d8e16dea3b71f4ce3b75cdb89456f62a, type: 2}
  - {fileID: 11400000, guid: 0021d0bba18ba48edb251280274ab4c7, type: 2}
  - {fileID: 11400000, guid: f1715cbfcd9fc42969e9fe4cc70f7e73, type: 2}
  m_ActiveProfileId: 337a4cb4f4cde453baf8c24fff3e3211
  m_HostingServicesManager:
    m_HostingServiceInfos: []
    m_Settings: {fileID: 11400000}
    m_NextInstanceId: 0
    m_RegisteredServiceTypeRefs: []
